#,"NO. DE PARTE",LOTE,SERIAL,"PZAS OK","PZAS NO OK","PZAS INSPECCIONADAS"
1,390200316413,1188136849,403728378,407,73,480
2,390200316413,1188136849,403441231,873,87,960
3,390200316413,1192837,4939282,1253,187,1440
4,390200316413,112398479,403982828,1706,234,1940
5,390200316413,119033948,40309282,2178,242,2420
6,390200316413,119033948,40309282,2613,287,2900
7,390200316413,82838,4030494,2659,299,2958
8,390200316413,jfjfjfjfjf,na,2740,718,3458
9,390200316413,sb12,sb12,3125,733,3858
10,390200316413,nxkd,ndns,3584,754,4338
11,390200316413,lo,ser,4055,763,4818
12,390200316413,lo,ser,4238,1060,5298
13,390200316413,lote,serial,4709,1069,5778
14,390200316413,lote,serial,5144,1114,6258
15,390200316413,lote,serial,5613,1125,6738
16,390200316413,lot,ser,6089,1149,7238
17,390200316413,lot,ser,6279,1459,7738
18,390200316413,1204848,403021948,6733,1485,8218
19,390200316413,11039,403029181,7154,1544,8698
20,390200316413,11039,403029181,7544,1634,9178
21,390200316413,qwe,qwe,7634,1644,9278
22,390200316413,qwe,qwe,7716,1662,9378
23,390200316413,qwe,qwe,7808,1670,9478
24,390200316413,123@#€,qwe@#€,7898,1680,9578
25,390200316413,123@#€,qwe@#€,7988,1690,9678
26,390200316413,p.cel,p.cel,8081,1697,9778
27,390200316413,jj,jj,8170,1708,9878
28,390200316413,ksms,kdmd,8260,1718,9978
29,390200316413,123cn,123bn,8319,1759,10078
30,390200316413,ndkd,mdms,8547,1789,10336
31,390200316413,ndkd,mdms,8794,1800,10594
32,390200316413,ndkd,jdjd,9029,1823,10852
33,390200316413,mdm,kdm,9029,2403,11432
34,390200316413,mdm,kdm,9599,2413,12012
